module gitlab.com/famhawiteinfosys/Melissa

// +heroku goVersion go1.19
go 1.19

require (
	github.com/PaulSonOfLars/gotg_md2html v0.0.0-20230615075057-63792bdcacf8
	github.com/PaulSonOfLars/gotgbot/v2 v2.0.0-rc.20
	github.com/dgraph-io/ristretto v0.1.1
	github.com/dustin/go-humanize v1.0.1
	github.com/eko/gocache/lib/v4 v4.1.3
	github.com/eko/gocache/store/redis/v4 v4.2.0
	github.com/eko/gocache/store/ristretto/v4 v4.1.2
	github.com/google/uuid v1.3.0
	github.com/joho/godotenv v1.5.1
	github.com/redis/go-redis/v9 v9.0.5
	github.com/sirupsen/logrus v1.9.3
	github.com/spf13/viper v1.16.0
	go.mongodb.org/mongo-driver v1.12.0
	golang.org/x/text v0.11.0
)

require (
	github.com/beorn7/perks v1.0.1 // indirect
	github.com/cespare/xxhash/v2 v2.2.0 // indirect
	github.com/dgryski/go-rendezvous v0.0.0-20200823014737-9f7001d12a5f // indirect
	github.com/fsnotify/fsnotify v1.6.0 // indirect
	github.com/golang/glog v0.0.0-20160126235308-23def4e6c14b // indirect
	github.com/golang/mock v1.6.0 // indirect
	github.com/golang/protobuf v1.5.3 // indirect
	github.com/golang/snappy v0.0.4 // indirect
	github.com/hashicorp/hcl v1.0.0 // indirect
	github.com/klauspost/compress v1.16.7 // indirect
	github.com/magiconair/properties v1.8.7 // indirect
	github.com/matttproud/golang_protobuf_extensions v1.0.4 // indirect
	github.com/mitchellh/mapstructure v1.5.0 // indirect
	github.com/montanaflynn/stats v0.7.1 // indirect
	github.com/pelletier/go-toml/v2 v2.0.9 // indirect
	github.com/pkg/errors v0.9.1 // indirect
	github.com/prometheus/client_golang v1.16.0 // indirect
	github.com/prometheus/client_model v0.4.0 // indirect
	github.com/prometheus/common v0.44.0 // indirect
	github.com/prometheus/procfs v0.11.1 // indirect
	github.com/spf13/afero v1.9.5 // indirect
	github.com/spf13/cast v1.5.1 // indirect
	github.com/spf13/jwalterweatherman v1.1.0 // indirect
	github.com/spf13/pflag v1.0.5 // indirect
	github.com/subosito/gotenv v1.4.2 // indirect
	github.com/vmihailenco/msgpack v4.0.4+incompatible // indirect
	github.com/xdg-go/pbkdf2 v1.0.0 // indirect
	github.com/xdg-go/scram v1.1.2 // indirect
	github.com/xdg-go/stringprep v1.0.4 // indirect
	github.com/youmark/pkcs8 v0.0.0-20201027041543-1326539a0a0a // indirect
	golang.org/x/crypto v0.11.0 // indirect
	golang.org/x/exp v0.0.0-20230728194245-b0cb94b80691 // indirect
	golang.org/x/net v0.12.0 // indirect
	golang.org/x/sync v0.3.0 // indirect
	golang.org/x/sys v0.10.0 // indirect
	google.golang.org/appengine v1.6.7 // indirect
	google.golang.org/protobuf v1.31.0 // indirect
	gopkg.in/ini.v1 v1.67.0 // indirect
	gopkg.in/yaml.v3 v3.0.1 // indirect
)
